Data Wrangling in R with the Tidyverse (Part 1) - Practice Solutions
…
---

# Practice 1 Solutions (1/2)

```r
newdata <- demo_data %>%
  filter(race7 %in% c("Asian","Native Hawaiian/other PI"), 
         grade == "9th",
         age != "12 years old or younger") %>%
  select(-race4)
newdata
```

```
# A tibble: 503 x 7
    record age          sex    grade race7                     bmi stweight
     <dbl> <chr>        <chr>  <chr> <chr>                   <dbl>    <dbl>
 1  924270 15 years old Male   9th   Asian                    30.7     81.6
 2 1310726 14 years old Female 9th   Asian                    30.7     81.6
 3  256154 14 years old Male   9th   Asian                    NA       NA  
 4  930610 14 years old Female 9th   Native Hawaiian/other …  20.9     59.0
 5  256461 15 years old Male   9th   Asian                    NA       NA  
 6  767725 14 years old Female 9th   Asian                    19.1     50.8
 7  769030 15 years old Female 9th   Native Hawaiian/other …  19.4     NA  
 8  923983 15 years old Male   9th   Asian                    21.0     70.3
 9  931000 14 years old Female 9th   Asian                    18.9     45.4
10 1305660 15 years old Male   9th   Asian                    24.4     64.9
# … with 493 more rows
```
…
```
# A tibble: 6,630 x 9
    record age      sex   grade_num race4  race7    bmi stweight bmi_normal
     <dbl> <chr>    <chr>     <dbl> <chr>  <chr>  <dbl>    <dbl>      <dbl>
 1  333862 17 year… Fema…        12 White  White   20.2     57.2          1
 2 1309082 17 year… Male         12 White  White   19.3     59.0          1
 3  506337 18 year… Male         12 Hispa… Hispa…  33.1    123.           0
 4  938291 18 year… Fema…        12 White  White   21.7     64.9          1
 5 1316277 18 year… Fema…        12 White  White   21.6     49.9          1
 6 1101972 18 year… Male         12 White  White   21.8     69.0          1
 7 1101441 18 year… Male         12 Hispa… Hispa…  21.7     61.2          1
 8 1307670 17 year… Male         12 Hispa… Hispa…  19.6     55.3          1
 9  929902 18 year… Male         12 White  White   25.1     83.9          0
10  930122 18 year… Male         12 All o… Asian   26.5     74.8          0
# … with 6,620 more rows
```
…
```
# A tibble: 6,630 x 10
   record age   sex   grade race4 race7   bmi stweight grade_num bmi_normal
    <dbl> <chr> <chr> <chr> <chr> <chr> <dbl>    <dbl>     <dbl>      <dbl>
 1 3.34e5 17 y… Fema… 12th  White White  20.2     57.2        12          1
 2 1.31e6 17 y… Male  12th  White White  19.3     59.0        12          1
 3 5.06e5 18 y… Male  12th  Hisp… Hisp…  33.1    123.         12          0
 4 9.38e5 18 y… Fema… 12th  White White  21.7     64.9        12          1
 5 1.32e6 18 y… Fema… 12th  White White  21.6     49.9        12          1
 6 1.10e6 18 y… Male  12th  White White  21.8     69.0        12          1
 7 1.10e6 18 y… Male  12th  Hisp… Hisp…  21.7     61.2        12          1
 8 1.31e6 17 y… Male  12th  Hisp… Hisp…  19.6     55.3        12          1
 9 9.30e5 18 y… Male  12th  White White  25.1     83.9        12          0
10 9.30e5 18 y… Male  12th  All … Asian  26.5     74.8        12          0
# … with 6,620 more rows
```
