Data Wrangling in R with the Tidyverse (Part 2)
…
```
[1] 10000     5
```

```
[1] 20000    12
```
]

```r
merged_data
```

```
# A tibble: 20,000 x 12
   record age   sex   grade race4 race7   bmi stweight q8    q12   q31  
    <dbl> <chr> <chr> <chr> <chr> <chr> <dbl>    <dbl> <chr> <chr> <chr>
 1 9.32e5 15 y… Fema… 10th  White White  17.2     54.4 Neve… <NA>  Yes  
 2 3.34e5 17 y… Fema… 12th  White White  20.2     57.2 <NA>  <NA>  <NA> 
 3 3.63e4 18 y… Male  11th  Hisp… Hisp…  NA       NA   Neve… <NA>  <NA> 
 4 1.10e6 15 y… Male  10th  Blac… Blac…  28.0     85.7 Neve… <NA>  Yes  
 5 1.30e6 14 y… Male  9th   All … Mult…  24.5     66.7 <NA>  <NA>  <NA> 
 6 2.62e5 17 y… Male  9th   All … <NA>   NA       NA   <NA>  <NA>  <NA> 
 7 9.27e5 16 y… Male  11th  All … Asian  20.5     70.3 <NA>  <NA>  <NA> 
 8 1.31e6 17 y… Male  12th  White White  19.3     59.0 Neve… 3 to… No   
 9 5.06e5 18 y… Male  12th  Hisp… Hisp…  33.1    123.  <NA>  <NA>  <NA> 
10 1.80e5 14 y… Male  10th  Blac… Blac…  NA       NA   Neve… <NA>  No   
# … with 19,990 more rows, and 1 more variable: qn24 <lgl>
```
…
---

# Clean names of your excel sheet

<center><img src="img/messy_names_excel.png" width="90%" height="90%"></center>

```r
library(readxl)
read_excel("data/messy_names.xlsx", .name_repair = janitor::make_clean_names)
```

```
# A tibble: 20,000 x 9
    record age   grade_string race  race_2 bmi_kg_m_2 weight_kg x     x_2  
     <dbl> <chr> <chr>        <chr> <chr>       <dbl>     <dbl> <chr> <chr>
 1  931897 15 y… 10th         White White        17.2      54.4 some… <NA> 
 2  333862 17 y… 12th         White White        20.2      57.2 notes <NA> 
 3   36253 18 y… 11th         Hisp… Hispa…       NA        NA   I th… <NA> 
 4 1095530 15 y… 10th         Blac… Black…       28.0      85.7 why   WHY? 
 5 1303997 14 y… 9th          All … Multi…       24.5      66.7 <NA>  <NA> 
 6  261619 17 y… 9th          All … <NA>         NA        NA   <NA>  <NA> 
 7  926649 16 y… 11th         All … Asian        20.5      70.3 <NA>  <NA> 
 8 1309082 17 y… 12th         White White        19.3      59.0 <NA>  <NA> 
 9  506337 18 y… 12th         Hisp… Hispa…       33.1     123.  <NA>  <NA> 
10  180494 14 y… 10th         Blac… Black…       NA        NA   <NA>  <NA> 
# … with 19,990 more rows
```
…
