Data Wrangling in R with the Tidyverse (Part 1)
…
```r
demo_data %>% filter(bmi > 20)
```

```
# A tibble: 10,375 x 8
    record age         sex   grade race4        race7          bmi stweight
     <dbl> <chr>       <chr> <chr> <chr>        <chr>        <dbl>    <dbl>
 1  333862 17 years o… Fema… 12th  White        White         20.2     57.2
 2 1095530 15 years o… Male  10th  Black or Af… Black or Af…  28.0     85.7
 3 1303997 14 years o… Male  9th   All other r… Multiple - …  24.5     66.7
 4  926649 16 years o… Male  11th  All other r… Asian         20.5     70.3
 5  506337 18 years o… Male  12th  Hispanic/La… Hispanic/La…  33.1    123. 
 6 1307180 16 years o… Male  10th  Hispanic/La… Hispanic/La…  21.8     66.7
 7 1312128 15 years o… Fema… 10th  White        White         22.0     65.8
 8  770177 16 years o… Fema… 10th  White        White         32.4     86.2
 9  938291 18 years o… Fema… 12th  White        White         21.7     64.9
10 1306691 16 years o… Male  11th  White        White         28.3    102. 
# … with 10,365 more rows
```
…
# Compare to base R

.pull-left[

- __Bracket method__: need to repeat tibble name
- Need to use `$` 
- Very nested and confusing to read
- Keeps `NA`s

```r
demo_data[demo_data$grade=="9th",]
```

```
# A tibble: 5,625 x 8
    record age       sex    grade race4      race7             bmi stweight
     <dbl> <chr>     <chr>  <chr> <chr>      <chr>           <dbl>    <dbl>
 1 1303997 14 years… Male   9th   All other… Multiple - Non…  24.5     66.7
 2  261619 17 years… Male   9th   All other… <NA>             NA       NA  
 3 1096939 15 years… Male   9th   <NA>       <NA>             17.1     45.4
 4  180968 15 years… Male   9th   White      White            NA       NA  
 5  924270 15 years… Male   9th   All other… Asian            30.7     81.6
 6  330828 15 years… Female 9th   Hispanic/… Hispanic/Latino  20.4     52.2
 7 1311252 15 years… Female 9th   Hispanic/… Hispanic/Latino  NA       NA  
 8   36853 14 years… Female 9th   All other… <NA>             NA       NA  
 9 1310689 14 years… Female 9th   Hispanic/… Hispanic/Latino  22.5     55.3
10 1310726 14 years… Female 9th   All other… Asian            30.7     81.6
# … with 5,615 more rows
```

]
.pull-right[
- __Pipe method__: list tibble name once
- No `$` needed since uses "non-standard evaluation": `filter()` knows `grade` is a column in `demo_data`
- Removes `NA`s

```r
demo_data %>% filter(grade=="9th")
```

```
# A tibble: 5,219 x 8
    record age       sex    grade race4      race7             bmi stweight
     <dbl> <chr>     <chr>  <chr> <chr>      <chr>           <dbl>    <dbl>
 1 1303997 14 years… Male   9th   All other… Multiple - Non…  24.5     66.7
 2  261619 17 years… Male   9th   All other… <NA>             NA       NA  
 3 1096939 15 years… Male   9th   <NA>       <NA>             17.1     45.4
 4  180968 15 years… Male   9th   White      White            NA       NA  
 5  924270 15 years… Male   9th   All other… Asian            30.7     81.6
 6  330828 15 years… Female 9th   Hispanic/… Hispanic/Latino  20.4     52.2
 7 1311252 15 years… Female 9th   Hispanic/… Hispanic/Latino  NA       NA  
 8   36853 14 years… Female 9th   All other… <NA>             NA       NA  
 9 1310689 14 years… Female 9th   Hispanic/… Hispanic/Latino  22.5     55.3
10 1310726 14 years… Female 9th   All other… Asian            30.7     81.6
# … with 5,209 more rows
```
…
---

# `select()` `\(\sim\)` columns

- select columns (variables)
- no quotes needed around variable names
- can be used to rearrange columns
- uses special syntax that is flexible and has many options

```r
demo_data %>% select(record, grade)
```

```
# A tibble: 20,000 x 2
    record grade
     <dbl> <chr>
 1  931897 10th 
 2  333862 12th 
 3   36253 11th 
 4 1095530 10th 
 5 1303997 9th  
 6  261619 9th  
 7  926649 11th 
 8 1309082 12th 
 9  506337 12th 
10  180494 10th 
# … with 19,990 more rows
```

---

# Compare to base R

.pull-left[
- Need brackets 
- Need quotes around column names

```r
demo_data[, c("record","age","sex")]
```

```
# A tibble: 20,000 x 3
    record age                   sex   
     <dbl> <chr>                 <chr> 
 1  931897 15 years old          Female
 2  333862 17 years old          Female
 3   36253 18 years old or older Male  
 4 1095530 15 years old          Male  
 5 1303997 14 years old          Male  
 6  261619 17 years old          Male  
 7  926649 16 years old          Male  
 8 1309082 17 years old          Male  
 9  506337 18 years old or older Male  
10  180494 14 years old          Male  
# … with 19,990 more rows
```
]
.pull-right[
- No quotes needed and easier to read. 
- More flexible, either of following work:

```r
demo_data %>% select(record, age, sex)
demo_data %>% select(record:sex)
```

```
# A tibble: 20,000 x 3
    record age                   sex   
     <dbl> <chr>                 <chr> 
 1  931897 15 years old          Female
 2  333862 17 years old          Female
 3   36253 18 years old or older Male  
 4 1095530 15 years old          Male  
 5 1303997 14 years old          Male  
 6  261619 17 years old          Male  
 7  926649 16 years old          Male  
 8 1309082 17 years old          Male  
 9  506337 18 years old or older Male  
10  180494 14 years old          Male  
# … with 19,990 more rows
# A tibble: 20,000 x 3
    record age                   sex   
     <dbl> <chr>                 <chr> 
 1  931897 15 years old          Female
 2  333862 17 years old          Female
 3   36253 18 years old or older Male  
 4 1095530 15 years old          Male  
 5 1303997 14 years old          Male  
 6  261619 17 years old          Male  
 7  926649 16 years old          Male  
 8 1309082 17 years old          Male  
 9  506337 18 years old or older Male  
10  180494 14 years old          Male  
# … with 19,990 more rows
```
…
demo_data %>% select(record, race4, race7, everything())
```

---

# `rename()` `\(\sim\)` columns

- renames column variables

```r
demo_data %>% rename(id = record)   # order: new_name = old_name
```

```
# A tibble: 20,000 x 8
        id age         sex   grade race4        race7          bmi stweight
     <dbl> <chr>       <chr> <chr> <chr>        <chr>        <dbl>    <dbl>
 1  931897 15 years o… Fema… 10th  White        White         17.2     54.4
 2  333862 17 years o… Fema… 12th  White        White         20.2     57.2
 3   36253 18 years o… Male  11th  Hispanic/La… Hispanic/La…  NA       NA  
 4 1095530 15 years o… Male  10th  Black or Af… Black or Af…  28.0     85.7
 5 1303997 14 years o… Male  9th   All other r… Multiple - …  24.5     66.7
 6  261619 17 years o… Male  9th   All other r… <NA>          NA       NA  
 7  926649 16 years o… Male  11th  All other r… Asian         20.5     70.3
 8 1309082 17 years o… Male  12th  White        White         19.3     59.0
 9  506337 18 years o… Male  12th  Hispanic/La… Hispanic/La…  33.1    123. 
10  180494 14 years o… Male  10th  Black or Af… Black or Af…  NA       NA  
# … with 19,990 more rows
```
…
# `mutate()`

Use `mutate()` to add new columns to a tibble
* many options in how to define new column of data

```r
newdata <- demo_data %>% 
  mutate(height_m = sqrt(stweight / bmi))   # use = (not <- or ==) to define new variable

newdata %>% select(record, bmi, stweight)
```

```
# A tibble: 20,000 x 3
    record   bmi stweight
     <dbl> <dbl>    <dbl>
 1  931897  17.2     54.4
 2  333862  20.2     57.2
 3   36253  NA       NA  
 4 1095530  28.0     85.7
 5 1303997  24.5     66.7
 6  261619  NA       NA  
 7  926649  20.5     70.3
 8 1309082  19.3     59.0
 9  506337  33.1    123. 
10  180494  NA       NA  
# … with 19,990 more rows
```
…
.pull-left[
`separate()`: one column to many
- when one column has multiple types of information
- removes original column by default

```r
demo_data %>% 
  separate(age,c("a","y","o","w","w2"),
           sep = " ") %>%
  select(a:w2)
```

```
# A tibble: 20,000 x 5
   a     y     o     w     w2   
   <chr> <chr> <chr> <chr> <chr>
 1 15    years old   <NA>  <NA> 
 2 17    years old   <NA>  <NA> 
 3 18    years old   or    older
 4 15    years old   <NA>  <NA> 
 5 14    years old   <NA>  <NA> 
 6 17    years old   <NA>  <NA> 
 7 16    years old   <NA>  <NA> 
 8 17    years old   <NA>  <NA> 
 9 18    years old   or    older
10 14    years old   <NA>  <NA> 
# … with 19,990 more rows
```

]
.pull-right[
`unite()`: many columns to one
- paste columns together using a separator
- removes original columns by default

```r
demo_data %>% 
  unite("sexgr", sex, grade, sep=":") %>%
  select(sexgr)
```

```
# A tibble: 20,000 x 1
   sexgr      
   <chr>      
 1 Female:10th
 2 Female:12th
 3 Male:11th  
 4 Male:10th  
 5 Male:9th   
 6 Male:9th   
 7 Male:11th  
 8 Male:12th  
 9 Male:12th  
10 Male:10th  
# … with 19,990 more rows
```
…
<!-- TO-DO: rename? -->

---

# Remove rows with missing data

`na.omit` removes *all* rows with *any* missing (`NA`) values in *any* column

```r
demo_data %>% na.omit()
```

```
# A tibble: 12,897 x 8
    record age         sex   grade race4        race7          bmi stweight
     <dbl> <chr>       <chr> <chr> <chr>        <chr>        <dbl>    <dbl>
 1  931897 15 years o… Fema… 10th  White        White         17.2     54.4
 2  333862 17 years o… Fema… 12th  White        White         20.2     57.2
 3 1095530 15 years o… Male  10th  Black or Af… Black or Af…  28.0     85.7
 4 1303997 14 years o… Male  9th   All other r… Multiple - …  24.5     66.7
 5  926649 16 years o… Male  11th  All other r… Asian         20.5     70.3
 6 1309082 17 years o… Male  12th  White        White         19.3     59.0
 7  506337 18 years o… Male  12th  Hispanic/La… Hispanic/La…  33.1    123. 
 8 1307180 16 years o… Male  10th  Hispanic/La… Hispanic/La…  21.8     66.7
 9 1312128 15 years o… Fema… 10th  White        White         22.0     65.8
10  770177 16 years o… Fema… 10th  White        White         32.4     86.2
# … with 12,887 more rows
```
…
