Data Wrangling in R with the Tidyverse
…
.pull-left[
All equivalent:

```r
select(.data = demo_data, "record")
select(demo_data, "record")
select(demo_data, record)
demo_data %>% select(record)
```
]
.pull-right[
Output:

```
# A tibble: 40,068 x 1
    record
     <dbl>
 1  506901
 2  635425
 3  506905
 4 1102227
 5   36586
 6  767512
 7  506907
 8  930386
 9 1310476
10  930393
# … with 40,058 more rows
```
…
- filter data based on rows
- use logical cues:
    + double = for "is equal to"
    + use `&` (and) or `|` (or)
    + `!` in front negates the statement, as in `!=` or `!(grade=="9th")`
- use math
    + `>` `<` `>=` `<=`
- use the `is.na()` function to filter based on missing values

```r
demo_data %>% filter(bmi > 20)
```

```
# A tibble: 20,818 x 8
    record age           sex   grade race4     race7           bmi stweight
     <dbl> <chr>         <chr> <chr> <chr>     <chr>         <dbl>    <dbl>
 1  506901 12 years old… Fema… 9th   All othe… Am Indian / …  23.9     69.0
 2 1310476 12 years old… Fema… 9th   Hispanic… Hispanic/Lat…  28       90.7
 3  767508 12 years old… Fema… 9th   Hispanic… Hispanic/Lat…  29.9     79.4
 4  930385 12 years old… Fema… 9th   Hispanic… Hispanic/Lat…  35.9     95.3
 5  767513 12 years old… Fema… 9th   Hispanic… Hispanic/Lat…  31.4     90.7
 6 1102222 12 years old… Fema… 10th  Hispanic… Hispanic/Lat…  31.2    104. 
 7 1102223 12 years old… Fema… 11th  Hispanic… Hispanic/Lat…  22.8     65.8
 8  402813 12 years old… Fema… 12th  Hispanic… Hispanic/Lat…  32.0     45.4
 9  767510 12 years old… Fema… 12th  White     White          20.0     63.5
10 1310484 12 years old… Fema… <NA>  Hispanic… Hispanic/Lat…  24.3     70.3
# … with 20,808 more rows
```
…
---

# `select()` `\(\sim\)` columns

- select columns/variables
- uses special syntax: `var1:var20`, `one_of(c("a","b","c"))`, `-var1`, `contains("date")`
- can be used to rearrange columns (useful to use `everything()`)

```r
demo_data %>% select(record, grade)
```

```
# A tibble: 40,068 x 2
    record grade
     <dbl> <chr>
 1  506901 9th  
 2  635425 9th  
 3  506905 9th  
 4 1102227 9th  
 5   36586 9th  
 6  767512 9th  
 7  506907 9th  
 8  930386 9th  
 9 1310476 9th  
10  930393 9th  
# … with 40,058 more rows
```

---

# `select()` practice

What do these commands do? Try:

```r
demo_data %>% select(-grade,-sex)
```

```
# A tibble: 40,068 x 6
    record age             race4            race7              bmi stweight
     <dbl> <chr>           <chr>            <chr>            <dbl>    <dbl>
 1  506901 12 years old o… All other races  Am Indian / Ala…  23.9     69.0
 2  635425 12 years old o… All other races  Am Indian / Ala…  NA       NA  
 3  506905 12 years old o… All other races  Am Indian / Ala…  NA       NA  
 4 1102227 12 years old o… All other races  Asian             NA       NA  
 5   36586 12 years old o… Black or Africa… Black or Africa…  NA       NA  
 6  767512 12 years old o… Black or Africa… Black or Africa…  NA       NA  
 7  506907 12 years old o… Black or Africa… Black or Africa…  NA       NA  
 8  930386 12 years old o… Black or Africa… Black or Africa…  NA       NA  
 9 1310476 12 years old o… Hispanic/Latino  Hispanic/Latino   28       90.7
10  930393 12 years old o… Hispanic/Latino  Hispanic/Latino   NA       NA  
# … with 40,058 more rows
```

```r
demo_data %>% select(record:sex)
```

```
# A tibble: 40,068 x 3
    record age                     sex   
     <dbl> <chr>                   <chr> 
 1  506901 12 years old or younger Female
 2  635425 12 years old or younger Female
 3  506905 12 years old or younger Female
 4 1102227 12 years old or younger Female
 5   36586 12 years old or younger Female
 6  767512 12 years old or younger Female
 7  506907 12 years old or younger Female
 8  930386 12 years old or younger Female
 9 1310476 12 years old or younger Female
10  930393 12 years old or younger Female
# … with 40,058 more rows
```

```r
demo_data %>% select(-(record:sex))
```

```
# A tibble: 40,068 x 5
   grade race4                     race7                       bmi stweight
   <chr> <chr>                     <chr>                     <dbl>    <dbl>
 1 9th   All other races           Am Indian / Alaska Native  23.9     69.0
 2 9th   All other races           Am Indian / Alaska Native  NA       NA  
 3 9th   All other races           Am Indian / Alaska Native  NA       NA  
 4 9th   All other races           Asian                      NA       NA  
 5 9th   Black or African American Black or African American  NA       NA  
 6 9th   Black or African American Black or African American  NA       NA  
 7 9th   Black or African American Black or African American  NA       NA  
 8 9th   Black or African American Black or African American  NA       NA  
 9 9th   Hispanic/Latino           Hispanic/Latino            28       90.7
10 9th   Hispanic/Latino           Hispanic/Latino            NA       NA  
# … with 40,058 more rows
```

```r
demo_data %>% select(contains("race"))
```

```
# A tibble: 40,068 x 2
   race4                     race7                    
   <chr>                     <chr>                    
 1 All other races           Am Indian / Alaska Native
 2 All other races           Am Indian / Alaska Native
 3 All other races           Am Indian / Alaska Native
 4 All other races           Asian                    
 5 Black or African American Black or African American
 6 Black or African American Black or African American
 7 Black or African American Black or African American
 8 Black or African American Black or African American
 9 Hispanic/Latino           Hispanic/Latino          
10 Hispanic/Latino           Hispanic/Latino          
# … with 40,058 more rows
```

```r
demo_data %>% select(record, race4, race7, everything())
```

```
# A tibble: 40,068 x 8
    record race4        race7        age         sex   grade   bmi stweight
     <dbl> <chr>        <chr>        <chr>       <chr> <chr> <dbl>    <dbl>
 1  506901 All other r… Am Indian /… 12 years o… Fema… 9th    23.9     69.0
 2  635425 All other r… Am Indian /… 12 years o… Fema… 9th    NA       NA  
 3  506905 All other r… Am Indian /… 12 years o… Fema… 9th    NA       NA  
 4 1102227 All other r… Asian        12 years o… Fema… 9th    NA       NA  
 5   36586 Black or Af… Black or Af… 12 years o… Fema… 9th    NA       NA  
 6  767512 Black or Af… Black or Af… 12 years o… Fema… 9th    NA       NA  
 7  506907 Black or Af… Black or Af… 12 years o… Fema… 9th    NA       NA  
 8  930386 Black or Af… Black or Af… 12 years o… Fema… 9th    NA       NA  
 9 1310476 Hispanic/La… Hispanic/La… 12 years o… Fema… 9th    28       90.7
10  930393 Hispanic/La… Hispanic/La… 12 years o… Fema… 9th    NA       NA  
# … with 40,058 more rows
```

```r
demo_data %>% select(one_of(c("age","stweight")))
```

```
# A tibble: 40,068 x 2
   age                     stweight
   <chr>                      <dbl>
 1 12 years old or younger     69.0
 2 12 years old or younger     NA  
 3 12 years old or younger     NA  
 4 12 years old or younger     NA  
 5 12 years old or younger     NA  
 6 12 years old or younger     NA  
 7 12 years old or younger     NA  
 8 12 years old or younger     NA  
 9 12 years old or younger     90.7
10 12 years old or younger     NA  
# … with 40,058 more rows
```

```r
demo_data %>% select(starts_with("r"))
```

```
# A tibble: 40,068 x 3
    record race4                     race7                    
     <dbl> <chr>                     <chr>                    
 1  506901 All other races           Am Indian / Alaska Native
 2  635425 All other races           Am Indian / Alaska Native
 3  506905 All other races           Am Indian / Alaska Native
 4 1102227 All other races           Asian                    
 5   36586 Black or African American Black or African American
 6  767512 Black or African American Black or African American
 7  506907 Black or African American Black or African American
 8  930386 Black or African American Black or African American
 9 1310476 Hispanic/Latino           Hispanic/Latino          
10  930393 Hispanic/Latino           Hispanic/Latino          
# … with 40,058 more rows
```

```r
demo_data %>% select(-contains("r"))
```

```
# A tibble: 40,068 x 4
   age                     sex      bmi stweight
   <chr>                   <chr>  <dbl>    <dbl>
 1 12 years old or younger Female  23.9     69.0
 2 12 years old or younger Female  NA       NA  
 3 12 years old or younger Female  NA       NA  
 4 12 years old or younger Female  NA       NA  
 5 12 years old or younger Female  NA       NA  
 6 12 years old or younger Female  NA       NA  
 7 12 years old or younger Female  NA       NA  
 8 12 years old or younger Female  NA       NA  
 9 12 years old or younger Female  28       90.7
10 12 years old or younger Female  NA       NA  
# … with 40,058 more rows
```

```r
demo_data %>% select(1:3)
```

```
# A tibble: 40,068 x 3
    record age                     sex   
     <dbl> <chr>                   <chr> 
 1  506901 12 years old or younger Female
 2  635425 12 years old or younger Female
 3  506905 12 years old or younger Female
 4 1102227 12 years old or younger Female
 5   36586 12 years old or younger Female
 6  767512 12 years old or younger Female
 7  506907 12 years old or younger Female
 8  930386 12 years old or younger Female
 9 1310476 12 years old or younger Female
10  930393 12 years old or younger Female
# … with 40,058 more rows
```

---

# `rename()` `\(\sim\)` columns

- renames column variables

```r
demo_data %>% rename(id = record)
```

```
# A tibble: 40,068 x 8
        id age         sex   grade race4        race7          bmi stweight
     <dbl> <chr>       <chr> <chr> <chr>        <chr>        <dbl>    <dbl>
 1  506901 12 years o… Fema… 9th   All other r… Am Indian /…  23.9     69.0
 2  635425 12 years o… Fema… 9th   All other r… Am Indian /…  NA       NA  
 3  506905 12 years o… Fema… 9th   All other r… Am Indian /…  NA       NA  
 4 1102227 12 years o… Fema… 9th   All other r… Asian         NA       NA  
 5   36586 12 years o… Fema… 9th   Black or Af… Black or Af…  NA       NA  
 6  767512 12 years o… Fema… 9th   Black or Af… Black or Af…  NA       NA  
 7  506907 12 years o… Fema… 9th   Black or Af… Black or Af…  NA       NA  
 8  930386 12 years o… Fema… 9th   Black or Af… Black or Af…  NA       NA  
 9 1310476 12 years o… Fema… 9th   Hispanic/La… Hispanic/La…  28       90.7
10  930393 12 years o… Fema… 9th   Hispanic/La… Hispanic/La…  NA       NA  
# … with 40,058 more rows
```
…
---

# `mutate()`

EXPLAIN MUTATE

```r
newdata <- demo_data %>% 
  select(record, bmi:stweight) %>%
  mutate(height_m = sqrt(stweight /bmi))
newdata
```

```
# A tibble: 40,068 x 4
    record   bmi stweight height_m
     <dbl> <dbl>    <dbl>    <dbl>
 1  506901  23.9     69.0     1.70
 2  635425  NA       NA      NA   
 3  506905  NA       NA      NA   
 4 1102227  NA       NA      NA   
 5   36586  NA       NA      NA   
 6  767512  NA       NA      NA   
 7  506907  NA       NA      NA   
 8  930386  NA       NA      NA   
 9 1310476  28       90.7     1.8 
10  930393  NA       NA      NA   
# … with 40,058 more rows
```
…
---

# `separate()` and `unite()`

---

# Dealing with missing or duplicated data

```r
demo_data %>% distinct()
```

```
# A tibble: 40,068 x 8
    record age         sex   grade race4        race7          bmi stweight
     <dbl> <chr>       <chr> <chr> <chr>        <chr>        <dbl>    <dbl>
 1  506901 12 years o… Fema… 9th   All other r… Am Indian /…  23.9     69.0
 2  635425 12 years o… Fema… 9th   All other r… Am Indian /…  NA       NA  
 3  506905 12 years o… Fema… 9th   All other r… Am Indian /…  NA       NA  
 4 1102227 12 years o… Fema… 9th   All other r… Asian         NA       NA  
 5   36586 12 years o… Fema… 9th   Black or Af… Black or Af…  NA       NA  
 6  767512 12 years o… Fema… 9th   Black or Af… Black or Af…  NA       NA  
 7  506907 12 years o… Fema… 9th   Black or Af… Black or Af…  NA       NA  
 8  930386 12 years o… Fema… 9th   Black or Af… Black or Af…  NA       NA  
 9 1310476 12 years o… Fema… 9th   Hispanic/La… Hispanic/La…  28       90.7
10  930393 12 years o… Fema… 9th   Hispanic/La… Hispanic/La…  NA       NA  
# … with 40,058 more rows
```

Removes *all* rows with *any* missing (`NA`) values in *any* row

```r
demo_data %>% na.omit()
```

```
# A tibble: 25,948 x 8
    record age         sex   grade race4        race7          bmi stweight
     <dbl> <chr>       <chr> <chr> <chr>        <chr>        <dbl>    <dbl>
 1  506901 12 years o… Fema… 9th   All other r… Am Indian /…  23.9     69.0
 2 1310476 12 years o… Fema… 9th   Hispanic/La… Hispanic/La…  28       90.7
 3  767508 12 years o… Fema… 9th   Hispanic/La… Hispanic/La…  29.9     79.4
 4  930385 12 years o… Fema… 9th   Hispanic/La… Hispanic/La…  35.9     95.3
 5  767513 12 years o… Fema… 9th   Hispanic/La… Hispanic/La…  31.4     90.7
 6 1102222 12 years o… Fema… 10th  Hispanic/La… Hispanic/La…  31.2    104. 
 7 1102231 12 years o… Fema… 10th  Hispanic/La… Hispanic/La…  18.7     50.8
 8 1102233 12 years o… Fema… 11th  Black or Af… Black or Af…  19.4     58.1
 9 1102223 12 years o… Fema… 11th  Hispanic/La… Hispanic/La…  22.8     65.8
10  402813 12 years o… Fema… 12th  Hispanic/La… Hispanic/La…  32.0     45.4
# … with 25,938 more rows
```
…
