Day 2 R code for Intro to R EDA workshop
…
penguins %>% filter(bill_length_mm > 55)

## # A tibble: 5 x 9
##      id species island bill_length_mm bill_depth_mm flipper_length_ body_mass_g
##   <dbl> <chr>   <chr>           <dbl>         <dbl>            <dbl>       <dbl>
## 1  4026 Gentoo  Biscoe           59.6          17                230        6050
## 2  2415 Gentoo  Biscoe           55.9          17                228        5600
## 3  4629 Gentoo  Biscoe           55.1          16                230        5850
## 4  2009 Chinst Dream            58            17.8              181        3700
## 5  4452 Chinst Dream            55.8          19.8              207        4000
## #  with 2 more variables: sex <chr>, year <dbl>

penguins %>% filter(island == "Torgersen")

## # A tibble: 51 x 9
##       id species island bill_length_mm bill_depth_mm flipper_length_
##    <dbl> <chr>   <chr>           <dbl>         <dbl>            <dbl>
##  1  1689 Adelie  Torge           39.1          18.7              181
##  2  4274 Adelie  Torge           NA            17.4              186
##  3  4539 Adelie  Torge           40.3          18                195
##  4  2435 Adelie  Torge           36.7          19.3              193
##  5  2326 Adelie  Torge           39.3          20.6              190
##  6  2637 Adelie  Torge           38.9          17.8              181
##  7  4443 Adelie  Torge           NA            19.6              195
##  8  2102 Adelie  Torge           34.1          18.1              193
##  9  2975 Adelie  Torge           42            20.2              190
## 10  3966 Adelie  Torge           37.8          17.1              186
## #  with 41 more rows, and 3 more variables: body_mass_g <dbl>, sex <chr>,
## #   year <dbl>

penguins %>% filter(bill_length_mm/bill_depth_mm > 3)    # can do math

## # A tibble: 108 x 9
##       id species island bill_length_mm bill_depth_mm flipper_length_
##    <dbl> <chr>   <chr>           <dbl>         <dbl>            <dbl>
##  1  2608 Gentoo  Biscoe           46.1          13.2              211
##  2  1389 Gentoo  Biscoe           50            16.3              230
##  3  4840 Gentoo  Biscoe           48.7          14.1              210
##  4  4670 Gentoo  Biscoe           50            15.2              218
##  5  1924 Gentoo  Biscoe           47.6          14.5              215
##  6  4070 Gentoo  Biscoe           46.5          13.5              210
##  7  3118 Gentoo  Biscoe           45.4          14.6              211
##  8  4792 Gentoo  Biscoe           46.7          15.3              219
##  9  3037 Gentoo  Biscoe           43.3          13.4              209
## 10  2892 Gentoo  Biscoe           46.8          15.4              215
## #  with 98 more rows, and 3 more variables: body_mass_g <dbl>, sex <chr>,
## #   year <dbl>
…
penguins %>% filter(body_mass_g < 3000 | bill_depth_mm < 20 | sex == "female")

## # A tibble: 320 x 9
##       id species island bill_length_mm bill_depth_mm flipper_length_
##    <dbl> <chr>   <chr>           <dbl>         <dbl>            <dbl>
##  1  1689 Adelie  Torge           39.1          18.7              181
##  2  4274 Adelie  Torge           NA            17.4              186
##  3  4539 Adelie  Torge           40.3          18                195
##  4  2435 Adelie  Torge           36.7          19.3              193
##  5  2637 Adelie  Torge           38.9          17.8              181
##  6  4443 Adelie  Torge           NA            19.6              195
##  7  2102 Adelie  Torge           34.1          18.1              193
##  8  3966 Adelie  Torge           37.8          17.1              186
##  9  4648 Adelie  Torge           37.8          17.3              180
## 10  2887 Adelie  Torge           41.1          17.6              182
## #  with 310 more rows, and 3 more variables: body_mass_g <dbl>, sex <chr>,
## #   year <dbl>

penguins %>% filter(year == 2008)      # note the use of == instead of just =

## # A tibble: 114 x 9
##       id species island bill_length_mm bill_depth_mm flipper_length_
##    <dbl> <chr>   <chr>           <dbl>         <dbl>            <dbl>
##  1  2306 Adelie  Biscoe           39.6          17.7              186
##  2  4604 Adelie  Biscoe           40.1          18.9              188
##  3  2891 Adelie  Biscoe           35            17.9              190
##  4  3443 Adelie  Biscoe           42            19.5              200
##  5  3460 Adelie  Biscoe           34.5          18.1              187
##  6  2918 Adelie  Biscoe           41.4          18.6              191
##  7  3749 Adelie  Biscoe           39            17.5              186
##  8  4822 Adelie  Biscoe           40.6          18.8              193
##  9  1593 Adelie  Biscoe           36.5          16.6              181
## 10  3548 Adelie  Biscoe           37.6          19.1              194
## #  with 104 more rows, and 3 more variables: body_mass_g <dbl>, sex <chr>,
## #   year <dbl>

penguins %>% filter(sex == "female")

## # A tibble: 165 x 9
##       id species island bill_length_mm bill_depth_mm flipper_length_
##    <dbl> <chr>   <chr>           <dbl>         <dbl>            <dbl>
##  1  4274 Adelie  Torge           NA            17.4              186
##  2  4539 Adelie  Torge           40.3          18                195
##  3  2435 Adelie  Torge           36.7          19.3              193
##  4  2637 Adelie  Torge           38.9          17.8              181
##  5  2887 Adelie  Torge           41.1          17.6              182
##  6  4743 Adelie  Torge           36.6          17.8              185
##  7  4573 Adelie  Torge           38.7          19                195
##  8  4953 Adelie  Torge           34.4          18.4              184
##  9  4927 Adelie  Biscoe           37.8          18.3              174
## 10  2144 Adelie  Biscoe           35.9          19.2              189
## #  with 155 more rows, and 3 more variables: body_mass_g <dbl>, sex <chr>,
## #   year <dbl>

penguins %>% filter(!(species == "Adelie"))

## # A tibble: 191 x 9
##       id species island bill_length_mm bill_depth_mm flipper_length_
##    <dbl> <chr>   <chr>           <dbl>         <dbl>            <dbl>
##  1  2608 Gentoo  Biscoe           46.1          13.2              211
##  2  1389 Gentoo  Biscoe           50            16.3              230
##  3  4840 Gentoo  Biscoe           48.7          14.1              210
##  4  4670 Gentoo  Biscoe           50            15.2              218
##  5  1924 Gentoo  Biscoe           47.6          14.5              215
##  6  4070 Gentoo  Biscoe           46.5          13.5              210
##  7  3118 Gentoo  Biscoe           45.4          14.6              211
##  8  4792 Gentoo  Biscoe           46.7          15.3              219
##  9  3037 Gentoo  Biscoe           43.3          13.4              209
## 10  2892 Gentoo  Biscoe           46.8          15.4              215
## #  with 181 more rows, and 3 more variables: body_mass_g <dbl>, sex <chr>,
## #   year <dbl>

penguins %>% filter(species %in% c("Chinstrap", "Gentoo"))

## # A tibble: 191 x 9
##       id species island bill_length_mm bill_depth_mm flipper_length_
##    <dbl> <chr>   <chr>           <dbl>         <dbl>            <dbl>
##  1  2608 Gentoo  Biscoe           46.1          13.2              211
##  2  1389 Gentoo  Biscoe           50            16.3              230
##  3  4840 Gentoo  Biscoe           48.7          14.1              210
##  4  4670 Gentoo  Biscoe           50            15.2              218
##  5  1924 Gentoo  Biscoe           47.6          14.5              215
##  6  4070 Gentoo  Biscoe           46.5          13.5              210
##  7  3118 Gentoo  Biscoe           45.4          14.6              211
##  8  4792 Gentoo  Biscoe           46.7          15.3              219
##  9  3037 Gentoo  Biscoe           43.3          13.4              209
## 10  2892 Gentoo  Biscoe           46.8          15.4              215
## #  with 181 more rows, and 3 more variables: body_mass_g <dbl>, sex <chr>,
## #   year <dbl>
…
penguins %>% filter(!is.na(sex))

## # A tibble: 333 x 9
##       id species island bill_length_mm bill_depth_mm flipper_length_
##    <dbl> <chr>   <chr>           <dbl>         <dbl>            <dbl>
##  1  1689 Adelie  Torge           39.1          18.7              181
##  2  4274 Adelie  Torge           NA            17.4              186
##  3  4539 Adelie  Torge           40.3          18                195
##  4  2435 Adelie  Torge           36.7          19.3              193
##  5  2326 Adelie  Torge           39.3          20.6              190
##  6  2637 Adelie  Torge           38.9          17.8              181
##  7  4443 Adelie  Torge           NA            19.6              195
##  8  2887 Adelie  Torge           41.1          17.6              182
##  9  4939 Adelie  Torge           38.6          21.2              191
## 10  2849 Adelie  Torge           34.6          21.1              198
## #  with 323 more rows, and 3 more variables: body_mass_g <dbl>, sex <chr>,
## #   year <dbl>

3.2 select()

penguins %>% select(id, island, species, body_mass_g)

## # A tibble: 342 x 4
##       id island    species body_mass_g
##    <dbl> <chr>     <chr>         <dbl>
##  1  1689 Torgersen Adelie         3750
##  2  4274 Torgersen Adelie         3800
##  3  4539 Torgersen Adelie         3250
##  4  2435 Torgersen Adelie         3450
##  5  2326 Torgersen Adelie         3650
##  6  2637 Torgersen Adelie         3625
##  7  4443 Torgersen Adelie         4675
##  8  2102 Torgersen Adelie         3475
##  9  2975 Torgersen Adelie         4250
## 10  3966 Torgersen Adelie         3300
## #  with 332 more rows

penguins %>% select(id:bill_length_mm)

## # A tibble: 342 x 4
##       id species island    bill_length_mm
##    <dbl> <chr>   <chr>              <dbl>
##  1  1689 Adelie  Torgersen           39.1
##  2  4274 Adelie  Torgersen           NA  
##  3  4539 Adelie  Torgersen           40.3
##  4  2435 Adelie  Torgersen           36.7
##  5  2326 Adelie  Torgersen           39.3
##  6  2637 Adelie  Torgersen           38.9
##  7  4443 Adelie  Torgersen           NA  
##  8  2102 Adelie  Torgersen           34.1
##  9  2975 Adelie  Torgersen           42  
## 10  3966 Adelie  Torgersen           37.8
## #  with 332 more rows

penguins %>% select(where(is.character))

## # A tibble: 342 x 3
##    species island    sex   
##    <chr>   <chr>     <chr> 
##  1 Adelie  Torgersen male  
##  2 Adelie  Torgersen female
##  3 Adelie  Torgersen female
##  4 Adelie  Torgersen female
##  5 Adelie  Torgersen male  
##  6 Adelie  Torgersen female
##  7 Adelie  Torgersen male  
##  8 Adelie  Torgersen <NA>  
##  9 Adelie  Torgersen <NA>  
## 10 Adelie  Torgersen <NA>  
## #  with 332 more rows

penguins %>% select(where(is.numeric))

## # A tibble: 342 x 6
##       id bill_length_mm bill_depth_mm flipper_length_mm body_mass_g  year
##    <dbl>          <dbl>         <dbl>             <dbl>       <dbl> <dbl>
##  1  1689           39.1          18.7               181        3750  2007
##  2  4274           NA            17.4               186        3800  2007
##  3  4539           40.3          18                 195        3250  2007
##  4  2435           36.7          19.3               193        3450  2007
##  5  2326           39.3          20.6               190        3650  2007
##  6  2637           38.9          17.8               181        3625  2007
##  7  4443           NA            19.6               195        4675  2007
##  8  2102           34.1          18.1               193        3475  2007
##  9  2975           42            20.2               190        4250  2007
## 10  3966           37.8          17.1               186        3300  2007
## #  with 332 more rows

penguins %>% select(-id,-species)

## # A tibble: 342 x 7
##    island  bill_length_mm bill_depth_mm flipper_length_ body_mass_g sex    year
##    <chr>            <dbl>         <dbl>            <dbl>       <dbl> <chr> <dbl>
##  1 Torger           39.1          18.7              181        3750 male   2007
##  2 Torger           NA            17.4              186        3800 fema  2007
##  3 Torger           40.3          18                195        3250 fema  2007
##  4 Torger           36.7          19.3              193        3450 fema  2007
##  5 Torger           39.3          20.6              190        3650 male   2007
##  6 Torger           38.9          17.8              181        3625 fema  2007
##  7 Torger           NA            19.6              195        4675 male   2007
##  8 Torger           34.1          18.1              193        3475 <NA>   2007
##  9 Torger           42            20.2              190        4250 <NA>   2007
## 10 Torger           37.8          17.1              186        3300 <NA>   2007
## #  with 332 more rows

penguins %>% select(-(id:island))

## # A tibble: 342 x 6
##    bill_length_mm bill_depth_mm flipper_length_mm body_mass_g sex     year
##             <dbl>         <dbl>             <dbl>       <dbl> <chr>  <dbl>
##  1           39.1          18.7               181        3750 male    2007
##  2           NA            17.4               186        3800 female  2007
##  3           40.3          18                 195        3250 female  2007
##  4           36.7          19.3               193        3450 female  2007
##  5           39.3          20.6               190        3650 male    2007
##  6           38.9          17.8               181        3625 female  2007
##  7           NA            19.6               195        4675 male    2007
##  8           34.1          18.1               193        3475 <NA>    2007
##  9           42            20.2               190        4250 <NA>    2007
## 10           37.8          17.1               186        3300 <NA>    2007
## #  with 332 more rows

penguins %>% select(contains("bill"))

## # A tibble: 342 x 2
##    bill_length_mm bill_depth_mm
##             <dbl>         <dbl>
##  1           39.1          18.7
##  2           NA            17.4
##  3           40.3          18  
##  4           36.7          19.3
##  5           39.3          20.6
##  6           38.9          17.8
##  7           NA            19.6
##  8           34.1          18.1
##  9           42            20.2
## 10           37.8          17.1
## #  with 332 more rows

penguins %>% select(starts_with("s"))

## # A tibble: 342 x 2
##    species sex   
##    <chr>   <chr> 
##  1 Adelie  male  
##  2 Adelie  female
##  3 Adelie  female
##  4 Adelie  female
##  5 Adelie  male  
##  6 Adelie  female
##  7 Adelie  male  
##  8 Adelie  <NA>  
##  9 Adelie  <NA>  
## 10 Adelie  <NA>  
## #  with 332 more rows

penguins %>% select(-contains("mm"))

## # A tibble: 342 x 6
##       id species island    body_mass_g sex     year
##    <dbl> <chr>   <chr>           <dbl> <chr>  <dbl>
##  1  1689 Adelie  Torgersen        3750 male    2007
##  2  4274 Adelie  Torgersen        3800 female  2007
##  3  4539 Adelie  Torgersen        3250 female  2007
##  4  2435 Adelie  Torgersen        3450 female  2007
##  5  2326 Adelie  Torgersen        3650 male    2007
##  6  2637 Adelie  Torgersen        3625 female  2007
##  7  4443 Adelie  Torgersen        4675 male    2007
##  8  2102 Adelie  Torgersen        3475 <NA>    2007
##  9  2975 Adelie  Torgersen        4250 <NA>    2007
## 10  3966 Adelie  Torgersen        3300 <NA>    2007
## #  with 332 more rows

3.3 relocate()

penguins %>% relocate(year, body_mass_g)

## # A tibble: 342 x 9
##     year body_mass_g    id species island bill_length_mm bill_depth_mm
##    <dbl>       <dbl> <dbl> <chr>   <chr>           <dbl>         <dbl>
##  1  2007        3750  1689 Adelie  Torge           39.1          18.7
##  2  2007        3800  4274 Adelie  Torge           NA            17.4
##  3  2007        3250  4539 Adelie  Torge           40.3          18  
##  4  2007        3450  2435 Adelie  Torge           36.7          19.3
##  5  2007        3650  2326 Adelie  Torge           39.3          20.6
##  6  2007        3625  2637 Adelie  Torge           38.9          17.8
##  7  2007        4675  4443 Adelie  Torge           NA            19.6
##  8  2007        3475  2102 Adelie  Torge           34.1          18.1
##  9  2007        4250  2975 Adelie  Torge           42            20.2
## 10  2007        3300  3966 Adelie  Torge           37.8          17.1
## #  with 332 more rows, and 2 more variables: flipper_length_mm <dbl>,
## #   sex <chr>

penguins %>% relocate(species:bill_length_mm)

## # A tibble: 342 x 9
##    species island bill_length_mm    id bill_depth_mm flipper_length_
##    <chr>   <chr>           <dbl> <dbl>         <dbl>            <dbl>
##  1 Adelie  Torge           39.1  1689          18.7              181
##  2 Adelie  Torge           NA    4274          17.4              186
##  3 Adelie  Torge           40.3  4539          18                195
##  4 Adelie  Torge           36.7  2435          19.3              193
##  5 Adelie  Torge           39.3  2326          20.6              190
##  6 Adelie  Torge           38.9  2637          17.8              181
##  7 Adelie  Torge           NA    4443          19.6              195
##  8 Adelie  Torge           34.1  2102          18.1              193
##  9 Adelie  Torge           42    2975          20.2              190
## 10 Adelie  Torge           37.8  3966          17.1              186
## #  with 332 more rows, and 3 more variables: body_mass_g <dbl>, sex <chr>,
## #   year <dbl>

penguins %>% relocate(where(is.character))

## # A tibble: 342 x 9
##    species island sex      id bill_length_mm bill_depth_mm flipper_length_
##    <chr>   <chr>  <chr> <dbl>          <dbl>         <dbl>            <dbl>
##  1 Adelie  Torge male   1689           39.1          18.7              181
##  2 Adelie  Torge fema  4274           NA            17.4              186
##  3 Adelie  Torge fema  4539           40.3          18                195
##  4 Adelie  Torge fema  2435           36.7          19.3              193
##  5 Adelie  Torge male   2326           39.3          20.6              190
##  6 Adelie  Torge fema  2637           38.9          17.8              181
##  7 Adelie  Torge male   4443           NA            19.6              195
##  8 Adelie  Torge <NA>   2102           34.1          18.1              193
##  9 Adelie  Torge <NA>   2975           42            20.2              190
## 10 Adelie  Torge <NA>   3966           37.8          17.1              186
## #  with 332 more rows, and 2 more variables: body_mass_g <dbl>, year <dbl>

penguins %>% relocate(where(is.numeric))

## # A tibble: 342 x 9
##       id bill_length_mm bill_depth_mm flipper_length_ body_mass_g  year species
##    <dbl>          <dbl>         <dbl>            <dbl>       <dbl> <dbl> <chr>  
##  1  1689           39.1          18.7              181        3750  2007 Adelie 
##  2  4274           NA            17.4              186        3800  2007 Adelie 
##  3  4539           40.3          18                195        3250  2007 Adelie 
##  4  2435           36.7          19.3              193        3450  2007 Adelie 
##  5  2326           39.3          20.6              190        3650  2007 Adelie 
##  6  2637           38.9          17.8              181        3625  2007 Adelie 
##  7  4443           NA            19.6              195        4675  2007 Adelie 
##  8  2102           34.1          18.1              193        3475  2007 Adelie 
##  9  2975           42            20.2              190        4250  2007 Adelie 
## 10  3966           37.8          17.1              186        3300  2007 Adelie 
## #  with 332 more rows, and 2 more variables: island <chr>, sex <chr>
…
