An Introduction to R and RStudio for Exploratory Data Analysis
…
---

# `select()` columns

- select columns (variables)
- no quotes needed around variable names
- can be used to rearrange columns
- syntax is flexible and has many options

```r
penguins %>% select(id, island, species, body_mass_g)
```

```
## # A tibble: 342 x 4
##       id island    species body_mass_g
##    <dbl> <chr>     <chr>         <dbl>
##  1  1689 Torgersen Adelie         3750
##  2  4274 Torgersen Adelie         3800
##  3  4539 Torgersen Adelie         3250
##  4  2435 Torgersen Adelie         3450
##  5  2326 Torgersen Adelie         3650
##  6  2637 Torgersen Adelie         3625
##  7  4443 Torgersen Adelie         4675
##  8  2102 Torgersen Adelie         3475
##  9  2975 Torgersen Adelie         4250
## 10  3966 Torgersen Adelie         3300
## # … with 332 more rows
```
…
---

# `relocate()` columns

- change the order of columns in dataset
- default action is to list specified column names first
- no quotes needed around variable names
- similar options as with `select()`, plus special ones such as `.before` and `.after`

```r
penguins %>% relocate(year, body_mass_g)
```

```
## # A tibble: 342 x 9
##     year body_mass_g    id species island bill_length_mm bill_depth_mm
##    <dbl>       <dbl> <dbl> <chr>   <chr>           <dbl>         <dbl>
##  1  2007        3750  1689 Adelie  Torge…           39.1          18.7
##  2  2007        3800  4274 Adelie  Torge…           NA            17.4
##  3  2007        3250  4539 Adelie  Torge…           40.3          18  
##  4  2007        3450  2435 Adelie  Torge…           36.7          19.3
##  5  2007        3650  2326 Adelie  Torge…           39.3          20.6
##  6  2007        3625  2637 Adelie  Torge…           38.9          17.8
##  7  2007        4675  4443 Adelie  Torge…           NA            19.6
##  8  2007        3475  2102 Adelie  Torge…           34.1          18.1
##  9  2007        4250  2975 Adelie  Torge…           42            20.2
## 10  2007        3300  3966 Adelie  Torge…           37.8          17.1
## # … with 332 more rows, and 2 more variables: flipper_length_mm <dbl>,
## #   sex <chr>
```
…
---

# Save your modified data

* Use a new variable name and the `<-` assignment operator to save a modified data frame
* You can save the modified data using the same name, but it will replace the previous dataset

```r
penguins_sub <- penguins %>% select(id:island, sex)
penguins_sub
```

```
## # A tibble: 342 x 4
##       id species island    sex   
##    <dbl> <chr>   <chr>     <chr> 
##  1  1689 Adelie  Torgersen male  
##  2  4274 Adelie  Torgersen female
##  3  4539 Adelie  Torgersen female
##  4  2435 Adelie  Torgersen female
##  5  2326 Adelie  Torgersen male  
##  6  2637 Adelie  Torgersen female
##  7  4443 Adelie  Torgersen male  
##  8  2102 Adelie  Torgersen <NA>  
##  9  2975 Adelie  Torgersen <NA>  
## 10  3966 Adelie  Torgersen <NA>  
## # … with 332 more rows
```
…
# `mutate()` the data

Use `mutate()` to add new columns to a tibble
* Many options for how to define new column of data

```r
penguins <- penguins %>% 
*  mutate(bill_ratio = bill_length_mm / bill_depth_mm)
# use = (not <- or ==) to define new variable

penguins %>% select(bill_ratio, bill_length_mm, bill_depth_mm)
```

```
## # A tibble: 342 x 3
##    bill_ratio bill_length_mm bill_depth_mm
##         <dbl>          <dbl>         <dbl>
##  1       2.09           39.1          18.7
##  2      NA              NA            17.4
##  3       2.24           40.3          18  
##  4       1.90           36.7          19.3
##  5       1.91           39.3          20.6
##  6       2.19           38.9          17.8
##  7      NA              NA            19.6
##  8       1.88           34.1          18.1
##  9       2.08           42            20.2
## 10       2.21           37.8          17.1
## # … with 332 more rows
```
…
# `rename()` columns

* `rename(new_name = old_name)`

.pull-left[
Code renames the column, but just prints output without saving the rename:

```r
# This does not save the new name
penguins %>% rename(record = id)
```

```
## # A tibble: 342 x 10
##    record species island bill_length_mm bill_depth_mm flipper_length_…
##     <dbl> <chr>   <chr>           <dbl>         <dbl>            <dbl>
##  1   1689 Adelie  Torge…           39.1          18.7              181
##  2   4274 Adelie  Torge…           NA            17.4              186
##  3   4539 Adelie  Torge…           40.3          18                195
##  4   2435 Adelie  Torge…           36.7          19.3              193
##  5   2326 Adelie  Torge…           39.3          20.6              190
##  6   2637 Adelie  Torge…           38.9          17.8              181
##  7   4443 Adelie  Torge…           NA            19.6              195
##  8   2102 Adelie  Torge…           34.1          18.1              193
##  9   2975 Adelie  Torge…           42            20.2              190
## 10   3966 Adelie  Torge…           37.8          17.1              186
## # … with 332 more rows, and 4 more variables: body_mass_g <dbl>, sex <chr>,
## #   year <dbl>, bill_ratio <dbl>
```
]
.pull-right[

Code renames the column *and* overwrites `penguins` with renamed column:

```r
*penguins2 <- penguins %>%
    rename(record = id)
penguins2
```

```
## # A tibble: 342 x 10
##    record species island bill_length_mm bill_depth_mm flipper_length_…
##     <dbl> <chr>   <chr>           <dbl>         <dbl>            <dbl>
##  1   1689 Adelie  Torge…           39.1          18.7              181
##  2   4274 Adelie  Torge…           NA            17.4              186
##  3   4539 Adelie  Torge…           40.3          18                195
##  4   2435 Adelie  Torge…           36.7          19.3              193
##  5   2326 Adelie  Torge…           39.3          20.6              190
##  6   2637 Adelie  Torge…           38.9          17.8              181
##  7   4443 Adelie  Torge…           NA            19.6              195
##  8   2102 Adelie  Torge…           34.1          18.1              193
##  9   2975 Adelie  Torge…           42            20.2              190
## 10   3966 Adelie  Torge…           37.8          17.1              186
## # … with 332 more rows, and 4 more variables: body_mass_g <dbl>, sex <chr>,
## #   year <dbl>, bill_ratio <dbl>
```
…
