An Introduction to R and RStudio for Exploratory Data Analysis
…
# Object types

---

# Data frames (aka "tibbles" in tidyverse)

.pull-left-60[
__Vectors__ vs. __data frames__: a data frame is a collection (or array or table) of vectors

```r
penguins
```

```
## # A tibble: 342 x 9
##       id species island bill_length_mm bill_depth_mm flipper_length_…
##    <dbl> <chr>   <chr>           <dbl>         <dbl>            <dbl>
##  1  1689 Adelie  Torge…           39.1          18.7              181
##  2  4274 Adelie  Torge…           NA            17.4              186
##  3  4539 Adelie  Torge…           40.3          18                195
##  4  2435 Adelie  Torge…           36.7          19.3              193
##  5  2326 Adelie  Torge…           39.3          20.6              190
##  6  2637 Adelie  Torge…           38.9          17.8              181
##  7  4443 Adelie  Torge…           NA            19.6              195
##  8  2102 Adelie  Torge…           34.1          18.1              193
##  9  2975 Adelie  Torge…           42            20.2              190
## 10  3966 Adelie  Torge…           37.8          17.1              186
## # … with 332 more rows, and 3 more variables: body_mass_g <dbl>, sex <chr>,
## #   year <dbl>
```
…
---

# Show (print) whole data frame

Tibble truncates the output to ten rows, so you can't actually see it all.

```r
penguins
```

```
## # A tibble: 342 x 9
##       id species island bill_length_mm bill_depth_mm flipper_length_…
##    <dbl> <chr>   <chr>           <dbl>         <dbl>            <dbl>
##  1  1689 Adelie  Torge…           39.1          18.7              181
##  2  4274 Adelie  Torge…           NA            17.4              186
##  3  4539 Adelie  Torge…           40.3          18                195
##  4  2435 Adelie  Torge…           36.7          19.3              193
##  5  2326 Adelie  Torge…           39.3          20.6              190
##  6  2637 Adelie  Torge…           38.9          17.8              181
##  7  4443 Adelie  Torge…           NA            19.6              195
##  8  2102 Adelie  Torge…           34.1          18.1              193
##  9  2975 Adelie  Torge…           42            20.2              190
## 10  3966 Adelie  Torge…           37.8          17.1              186
## # … with 332 more rows, and 3 more variables: body_mass_g <dbl>, sex <chr>,
## #   year <dbl>
```
…
.pull-right-40[
Entire col: `DatSetName[, column#]`

```r
# Third column
penguins[, 3]
```

```
## # A tibble: 342 x 1
##    island   
##    <chr>    
##  1 Torgersen
##  2 Torgersen
##  3 Torgersen
##  4 Torgersen
##  5 Torgersen
##  6 Torgersen
##  7 Torgersen
##  8 Torgersen
##  9 Torgersen
## 10 Torgersen
## # … with 332 more rows
```
…
---

# The $

Suppose we want to single out the column of bill length values.

.pull-left[
* How did we previously learn to do this?

```r
penguins[, 4]
```

```
## # A tibble: 342 x 1
##    bill_length_mm
##             <dbl>
##  1           39.1
##  2           NA  
##  3           40.3
##  4           36.7
##  5           39.3
##  6           38.9
##  7           NA  
##  8           34.1
##  9           42  
## 10           37.8
## # … with 332 more rows
```
…
